1 10 20
100 200 125
201 210 89
900 1000 174
1 1 1
1 2 2
1 3 8
1 4 8
1 8 17
1 16 20
1 32 112
1 64 113
1 128 119
1 256 128
1 512 144
1 1024 179
1 2048 182
1 4096 238
1 8192 262
1 16384 276
1 32768 308
1 65536 340
1 131072 354
1 232144 443
1 524288 470
1 111111 354
2 1 2
3 1 8
4 1 8
8 1 17
16 1 20
32 1 112
64 1 113
128 1 119
256 1 128
512 1 144
1024 1 179
2048 1 182
4096 1 238
8192 1 262
16384 1 276
32768 1 308
65536 1 340
131072 1 354
232144 1 443
524288 1 470
918533 317322 525
276392 206539 443
689729 187496 509
396526 821553 509
729081 390986 509
386283 296067 441
457566 423356 418
67382 193775 383
729759 749659 424
290432 597947 470
813810 511145 509
989023 408535 525
956987 84057 525
610368 969044 525
505333 212681 449
557581 92432 470
87084 332812 443
348493 90882 443
661382 247728 509
675210 329683 509
235326 933658 525
811207 258445 509
397248 559905 470
205929 605384 470
76992 531009 470
4693 252500 443
835889 208501 509
676781 773816 504
780866 722497 468
792464 195065 509
404166 169174 443
390086 42763 443
548962 219760 470
691497 621189 509
583870 174646 470
16556 529167 470
769046 316162 509
150349 72788 375
775043 246241 509
610676 250959 470
831514 239910 509
300861 201134 443
347038 633171 509
684057 361208 509
548179 821921 509
198761 235260 443
136267 725542 509
912678 896331 476
402029 440179 449
18533 678467 509
989146 234180 525
676121 646771 442
917697 398903 525
386337 764974 509
102378 247003 443
907246 815488 525
827456 649555 504
569536 604840 434
644622 163956 509
55417 418975 449
861252 80963 525
616002 341827 470
736734 559207 509
344517 107419 443
668603 656061 442
568919 398514 470
349785 318535 441
425285 803996 509
218119 413429 449
630501 775741 504
514851 156440 470
115297 690860 509
987143 775899 525
243458 381567 441
724329 386736 509
218202 785568 509
847418 852178 357
206075 877424 525
483374 364875 449
553109 623411 447
680840 547224 509
79920 458500 449
510088 402878 449
930485 248550 525
230354 869896 525
431615 104487 449
160320 501400 449
162790 359543 443
503340 308036 449
767585 238236 509
971431 149627 525
309115 507721 449
886739 288337 525
575527 632013 509
815651 444377 509
4294 280657 443
827243 264707 509
216875 666741 509
445221 697021 509
761103 808906 468
516199 12623 470
303174 669979 509
747476 145069 509
702431 511912 509
114018 915079 525
212283 169638 373
607250 194512 470
851080 645456 525
514116 581520 452
435459 14598 449
88456 565950 470
21081 760128 509
11562 484469 449
32925 65433 340
56550 967288 525
19952 676976 509
31941 642046 509
10762 461737 449
91817 354181 443
75674 23065 340
23851 533543 470
34786 571783 470
22747 633175 509
93911 368241 443
74174 700319 509
82548 255491 443
98709 519711 470
20045 435547 449
93551 688524 509
54997 677582 509
55187 260175 443
65512 441050 449
70503 152490 375
84984 998582 525
95909 42815 351
90103 727634 509
6519 588385 470
66468 320186 443
52447 814703 509
1339 678937 509
37986 855164 525
31707 423331 449
61131 783679 509
30738 971692 525
72294 654024 509
24676 827536 509
16231 908263 525
59232 596545 470
13634 436696 449
9606 598955 470
18811 975818 525
68985 340406 443
78851 23491 351
88989 788150 509
3643 193623 383
38123 482615 449
25069 345231 443
78285 989267 525
38982 748168 509
797563 890396 525
924303 478880 525
949322 203134 525
657526 616348 509
489161 600398 470
727669 296836 509
696882 119321 509
942442 211882 525
854625 338927 525
56805 643001 509
332733 812968 509
128693 64377 354
874218 562150 525
579798 197828 470
379352 663792 509
215382 915125 525
560797 605 470
704504 174933 509
941370 491015 525
742023 548854 509
605432 920900 525
801086 471083 509
983912 518144 525
644192 515587 509
645609 738789 504
44321 180058 383
234988 301143 407
843527 306270 525
699331 654447 442
840829 459732 525
875762 562586 525
399482 92661 443
38969 829205 509
682877 64240 509
221856 992705 525
883759 463434 525
72633 678396 509
92 992444 525
19 22642 279
60 10577 262
16 977575 525
62 811267 509
47 267268 443
81 485363 449
56 520867 470
34 291887 443
78 215779 383
11 747581 509
62 240781 443
13 508084 449
64 447171 449
10 920511 525
87 645634 509
8 542870 470
72 110071 354
87 795427 509
89 279124 443
98 184499 383
64 260530 443
68 708874 509
96 411451 449
51 58007 340
75 821878 509
16 410694 449
9 1210 182
94 706473 509
4 411944 449
79 641290 509
83 731935 509
88 115581 354
3 900801 525
20 944620 525
20 813409 509
42 848326 525
52 408435 443
80 268815 443
9 293722 443
12 975931 525
21 912221 525
28 54281 340
85 242237 443
64 923433 525
17 89915 351
11 831685 509
34 5858 238
85 401180 443
845191 764689 525
442248 308644 449
651801 23425 509
88592 184966 383
48433 867578 525
568707 393095 470
71634 463577 449
