574240 153002 470
517737 900658 525
491486 640639 509
661857 946053 525
180123 304442 443
722038 751240 424
183290 221841 386
277715 810664 509
137117 184439 383
649211 722785 504
71818 610506 470
192293 997332 525
19229 277742 443
90531 406038 443
50188 275073 443
421726 527226 470
220743 562445 470
564170 843790 525
692454 722721 504
555057 667991 509
49047 934270 525
184380 483713 449
12725 916484 525
335668 786346 509
688435 947258 525
1363 386952 443
295062 878480 525
477550 594785 470
450604 953635 525
37021 529760 470
98113 883366 525
334837 962221 525
105875 683817 509
367506 800576 509
83445 488237 449
922366 923416 445
293287 944235 525
159778 563909 470
220401 938911 525
272044 629489 509
396407 399006 374
184188 483482 449
176999 874450 525
384596 724753 509
205200 952018 525
193478 238752 443
183617 565623 470
136153 855687 525
145068 609028 470
296244 991133 525
182173 308249 443
336967 425697 449
262235 273057 407
310530 685933 509
583650 656820 509
801516 911108 525
75071 894952 525
539257 590887 452
613009 747330 509
421206 852567 525
205291 331070 443
339427 577132 470
689100 772951 504
510995 995489 525
307497 343564 384
409971 869541 525
51412 480187 449
41997 99844 351
304085 448315 449
348174 544683 470
559836 617402 447
400792 456867 449
488479 813052 509
698217 988067 525
50445 275190 443
412177 889402 525
59270 841366 525
614454 639893 509
342866 703520 509
143977 960299 525
190467 696773 509
340061 930246 525
232431 559501 470
167905 324726 443
539603 593254 452
145603 324193 443
223848 387186 443
214473 515476 470
347313 359234 379
90240 502530 449
50080 320599 443
120737 967207 525
88542 228433 386
319521 965277 525
451723 880886 525
107890 294217 443
384434 806262 509
374049 805339 509
421459 456240 418
169265 945871 525
22899 968919 525
429905 858000 525
61697 995647 525
279820 801387 509
895848 955038 507
828272 912795 525
24172 959082 525
168211 556638 470
417592 429425 418
483008 499771 426
648662 930508 525
419702 957446 525
165547 556526 470
425217 440308 400
224662 623795 470
297286 324417 384
625197 673382 509
180247 873832 525
302926 774159 509
116514 489631 449
17060 208997 383
264682 877335 525
434729 922849 525
84243 735679 509
329897 571374 470
143918 490818 449
479096 771116 509
557867 898442 525
155928 890787 525
295747 747468 509
323158 818420 509
197096 438749 449
126171 662732 509
98884 992777 525
49395 827574 509
598962 786037 509
23632 455251 449
354657 448376 449
149814 593690 470
276125 722313 509
362915 858885 525
201660 417789 449
676242 929919 525
63057 930144 525
173858 868968 525
111658 648804 509
810102 833609 450
25937 412029 449
101849 335412 443
360271 919136 525
498857 796900 509
749962 989438 525
51768 902235 525
177035 683553 509
692882 976424 525
536600 542446 408
154541 538588 470
490485 559922 470
588026 727473 509
727021 771261 468
724053 869175 525
320601 924243 525
813948 872936 525
274560 439393 449
114187 691269 509
108300 947296 525
628371 637981 416
701594 815798 504
120966 943450 525
785151 896377 525
189638 625016 470
550039 650991 509
91097 244239 443
27641 700102 509
59933 701421 509
557971 596016 434
51139 419218 449
648929 757210 504
825521 871276 525
553544 680238 509
20151 81960 351
80903 107607 354
68280 846365 525
882072 903512 445
396618 438159 449
701699 995885 525
91951 181685 383
530025 990724 525
500834 814671 509
418891 751949 509
765122 968893 525
885637 924980 476
701862 809728 504
372863 558450 470
289958 443506 449
187627 855270 525
876474 915339 476
46578 801038 509
110662 932211 525
325181 947133 525
226208 941876 525
626385 686252 442
863788 944058 507
493403 596317 470
140398 700867 509
516693 536078 439
325393 388539 441
175346 302698 443
13825 949958 525
362077 595222 470
210918 300298 443
107579 110501 310
65860 651401 509
285064 858180 525
371248 384718 423
700023 817433 504
74629 157800 383
677498 697886 442
396687 835449 509
370339 764579 509
826141 885483 525
372887 662929 509
420062 523292 470
804234 898979 525
466488 984300 525
40576 118261 354
91495 308960 443
282427 679663 509
350201 796215 509
453186 954665 525
325037 569418 470
72694 437572 449
892602 918432 476
169682 752153 509
684247 849524 525
332142 971178 525
76764 748885 509
127718 403533 443
130565 408927 443
745551 983928 525
652730 980200 525
249812 673467 509
330601 770041 509
56968 986219 525
21084 960302 525
646607 780005 504
34020 674314 509
75120 114829 354
95993 116147 354
121672 217362 386
450705 831201 509
785026 836565 468
808593 948383 525
573155 822412 509
259820 835725 509
59090 901782 525
566365 627326 509
318190 883285 525
398250 526479 470
111844 211063 383
174974 716015 509
262988 825935 509
84518 628133 509
552221 851087 525
626633 713524 504
45387 87046 351
574991 578885 390
2119 405459 443
58170 746743 509
419886 709310 509
